<?xml version="1.0" encoding="UTF-8" standalone="no"?>
<!-- Created with Inkscape (http://www.inkscape.org/) -->

<svg
   xmlns:dc="http://purl.org/dc/elements/1.1/"
   xmlns:cc="http://creativecommons.org/ns#"
   xmlns:rdf="http://www.w3.org/1999/02/22-rdf-syntax-ns#"
   xmlns:svg="http://www.w3.org/2000/svg"
   xmlns="http://www.w3.org/2000/svg"
   xmlns:xlink="http://www.w3.org/1999/xlink"
   xmlns:sodipodi="http://sodipodi.sourceforge.net/DTD/sodipodi-0.dtd"
   xmlns:inkscape="http://www.inkscape.org/namespaces/inkscape"
   width="744.09448819"
   height="1052.3622047"
   id="svg2"
   version="1.1"
   inkscape:version="0.92.3 (2405546, 2018-03-11)"
   sodipodi:docname="marble_dispose.svg"
   inkscape:export-filename="/devel/projects/talks/reactive-talk/img/marble_dispose.png"
   inkscape:export-xdpi="391.88"
   inkscape:export-ydpi="391.88">
  <defs
     id="defs4">
    <marker
       inkscape:stockid="Arrow1Lend"
       orient="auto"
       refY="0.0"
       refX="0.0"
       id="marker2361"
       style="overflow:visible;"
       inkscape:isstock="true">
      <path
         id="path1409"
         d="M 0.0,0.0 L 5.0,-5.0 L -12.5,0.0 L 5.0,5.0 L 0.0,0.0 z "
         style="fill-rule:evenodd;stroke:#0000ff;stroke-width:1pt;stroke-opacity:1;fill:#0000ff;fill-opacity:1"
         transform="scale(0.8) rotate(180) translate(12.5,0)" />
    </marker>
    <linearGradient
       id="linearGradient5954">
      <stop
         id="stop5956"
         offset="0"
         style="stop-color:#ffffff;stop-opacity:1" />
      <stop
         id="stop5958"
         offset="1"
         style="stop-color:#00ffff;stop-opacity:1" />
    </linearGradient>
    <linearGradient
       id="linearGradient5948">
      <stop
         style="stop-color:#ffffff;stop-opacity:1"
         offset="0"
         id="stop5950" />
      <stop
         style="stop-color:#ffff00;stop-opacity:1"
         offset="1"
         id="stop5952" />
    </linearGradient>
    <marker
       inkscape:stockid="Arrow1Send"
       orient="auto"
       refY="0.0"
       refX="0.0"
       id="Arrow1Send"
       style="overflow:visible;">
      <path
         id="path4186"
         d="M 0.0,0.0 L 5.0,-5.0 L -12.5,0.0 L 5.0,5.0 L 0.0,0.0 z "
         style="fill-rule:evenodd;stroke:#000000;stroke-width:1.0pt;"
         transform="scale(0.2) rotate(180) translate(6,0)" />
    </marker>
    <marker
       inkscape:stockid="Arrow1Lend"
       orient="auto"
       refY="0.0"
       refX="0.0"
       id="Arrow1Lend"
       style="overflow:visible;">
      <path
         id="path4174"
         d="M 0.0,0.0 L 5.0,-5.0 L -12.5,0.0 L 5.0,5.0 L 0.0,0.0 z "
         style="fill-rule:evenodd;stroke:#000000;stroke-width:1.0pt;"
         transform="scale(0.8) rotate(180) translate(12.5,0)" />
    </marker>
    <linearGradient
       id="linearGradient3123">
      <stop
         style="stop-color:#ffffff;stop-opacity:1"
         offset="0"
         id="stop3125" />
      <stop
         style="stop-color:#0000ff;stop-opacity:1"
         offset="1"
         id="stop3127" />
    </linearGradient>
    <linearGradient
       id="linearGradient6690">
      <stop
         id="stop6692"
         offset="0"
         style="stop-color:#ffffff;stop-opacity:1" />
      <stop
         id="stop6694"
         offset="1"
         style="stop-color:#ff00ff;stop-opacity:1" />
    </linearGradient>
    <linearGradient
       id="linearGradient6641">
      <stop
         style="stop-color:#ffffff;stop-opacity:1"
         offset="0"
         id="stop6643" />
      <stop
         style="stop-color:#0000ff;stop-opacity:1"
         offset="1"
         id="stop6645" />
    </linearGradient>
    <linearGradient
       id="linearGradient6569">
      <stop
         id="stop6571"
         offset="0"
         style="stop-color:#ffffff;stop-opacity:1" />
      <stop
         id="stop6573"
         offset="1"
         style="stop-color:#008000;stop-opacity:1" />
    </linearGradient>
    <linearGradient
       id="linearGradient6470">
      <stop
         id="stop6472"
         offset="0"
         style="stop-color:#ffffff;stop-opacity:1" />
      <stop
         id="stop6474"
         offset="1"
         style="stop-color:#ffff00;stop-opacity:1" />
    </linearGradient>
    <linearGradient
       id="linearGradient6430">
      <stop
         style="stop-color:#ffffff;stop-opacity:1"
         offset="0"
         id="stop6432" />
      <stop
         style="stop-color:#0000ff;stop-opacity:1"
         offset="1"
         id="stop6434" />
    </linearGradient>
    <linearGradient
       id="linearGradient6390">
      <stop
         id="stop6392"
         offset="0"
         style="stop-color:#ffffff;stop-opacity:1" />
      <stop
         id="stop6394"
         offset="1"
         style="stop-color:#008000;stop-opacity:1" />
    </linearGradient>
    <marker
       inkscape:stockid="Arrow1Mend"
       orient="auto"
       refY="0.0"
       refX="0.0"
       id="Arrow1Mend"
       style="overflow:visible;">
      <path
         id="path3786"
         d="M 0.0,0.0 L 5.0,-5.0 L -12.5,0.0 L 5.0,5.0 L 0.0,0.0 z "
         style="fill-rule:evenodd;stroke:#000000;stroke-width:1.0pt;"
         transform="scale(0.4) rotate(180) translate(10,0)" />
    </marker>
    <linearGradient
       id="linearGradient5976">
      <stop
         style="stop-color:#ffffff;stop-opacity:1"
         offset="0"
         id="stop5978" />
      <stop
         style="stop-color:#ff0000;stop-opacity:1"
         offset="1"
         id="stop5980" />
    </linearGradient>
    <linearGradient
       id="linearGradient4492">
      <stop
         style="stop-color:#ff0000;stop-opacity:1;"
         offset="0"
         id="stop4494" />
      <stop
         style="stop-color:#ff0000;stop-opacity:1"
         offset="1"
         id="stop4496" />
    </linearGradient>
    <marker
       inkscape:stockid="Arrow2Lend"
       orient="auto"
       refY="0.0"
       refX="0.0"
       id="Arrow2Lend"
       style="overflow:visible;">
      <path
         id="path3798"
         style="fill-rule:evenodd;stroke-width:0.62500000;stroke-linejoin:round;"
         d="M 8.7185878,4.0337352 L -2.2072895,0.016013256 L 8.7185884,-4.0017078 C 6.9730900,-1.6296469 6.9831476,1.6157441 8.7185878,4.0337352 z "
         transform="scale(1.1) rotate(180) translate(1,0)" />
    </marker>
    <radialGradient
       inkscape:collect="always"
       xlink:href="#linearGradient5976-2"
       id="radialGradient5982-0"
       cx="113.02963"
       cy="322.38428"
       fx="113.02963"
       fy="322.38428"
       r="13.857142"
       gradientUnits="userSpaceOnUse"
       gradientTransform="matrix(-1.1542513,0.84457023,-0.74442288,-1.0173826,479.77644,556.22336)" />
    <linearGradient
       id="linearGradient5976-2">
      <stop
         style="stop-color:#ffffff;stop-opacity:1"
         offset="0"
         id="stop5978-9" />
      <stop
         style="stop-color:#ff0000;stop-opacity:1"
         offset="1"
         id="stop5980-9" />
    </linearGradient>
    <radialGradient
       r="13.857142"
       fy="322.38428"
       fx="113.02963"
       cy="322.38428"
       cx="113.02963"
       gradientTransform="matrix(-1.1542513,0.84457023,-0.74442288,-1.0173826,479.77644,556.22336)"
       gradientUnits="userSpaceOnUse"
       id="radialGradient6371-1"
       xlink:href="#linearGradient6390-0"
       inkscape:collect="always" />
    <linearGradient
       id="linearGradient6390-0">
      <stop
         id="stop6392-1"
         offset="0"
         style="stop-color:#ffffff;stop-opacity:1" />
      <stop
         id="stop6394-6"
         offset="1"
         style="stop-color:#008000;stop-opacity:1" />
    </linearGradient>
    <radialGradient
       r="13.857142"
       fy="322.38428"
       fx="113.02963"
       cy="322.38428"
       cx="113.02963"
       gradientTransform="matrix(-1.1542513,0.84457023,-0.74442288,-1.0173826,479.77644,556.22336)"
       gradientUnits="userSpaceOnUse"
       id="radialGradient6411-2"
       xlink:href="#linearGradient6430-5"
       inkscape:collect="always" />
    <linearGradient
       id="linearGradient6430-5">
      <stop
         style="stop-color:#ffffff;stop-opacity:1"
         offset="0"
         id="stop6432-2" />
      <stop
         style="stop-color:#0000ff;stop-opacity:1"
         offset="1"
         id="stop6434-6" />
    </linearGradient>
    <marker
       inkscape:stockid="Arrow1Mend"
       orient="auto"
       refY="0"
       refX="0"
       id="Arrow1Mend-5"
       style="overflow:visible">
      <path
         inkscape:connector-curvature="0"
         id="path3786-9"
         d="M 0,0 5,-5 -12.5,0 5,5 0,0 z"
         style="fill-rule:evenodd;stroke:#000000;stroke-width:1pt"
         transform="matrix(-0.4,0,0,-0.4,-4,0)" />
    </marker>
    <radialGradient
       inkscape:collect="always"
       xlink:href="#linearGradient5976-7"
       id="radialGradient5982-07"
       cx="113.02963"
       cy="322.38428"
       fx="113.02963"
       fy="322.38428"
       r="13.857142"
       gradientUnits="userSpaceOnUse"
       gradientTransform="matrix(-1.1542513,0.84457023,-0.74442288,-1.0173826,479.77644,556.22336)" />
    <linearGradient
       id="linearGradient5976-7">
      <stop
         style="stop-color:#ffffff;stop-opacity:1"
         offset="0"
         id="stop5978-8" />
      <stop
         style="stop-color:#ff0000;stop-opacity:1"
         offset="1"
         id="stop5980-91" />
    </linearGradient>
    <marker
       inkscape:stockid="Arrow1Mend"
       orient="auto"
       refY="0"
       refX="0"
       id="Arrow1Mend-2"
       style="overflow:visible">
      <path
         inkscape:connector-curvature="0"
         id="path3786-5"
         d="M 0,0 5,-5 -12.5,0 5,5 0,0 z"
         style="fill-rule:evenodd;stroke:#000000;stroke-width:1pt"
         transform="matrix(-0.4,0,0,-0.4,-4,0)" />
    </marker>
    <radialGradient
       inkscape:collect="always"
       xlink:href="#linearGradient5976-8"
       id="radialGradient5982-7"
       cx="113.02963"
       cy="322.38428"
       fx="113.02963"
       fy="322.38428"
       r="13.857142"
       gradientUnits="userSpaceOnUse"
       gradientTransform="matrix(-1.1542513,0.84457023,-0.74442288,-1.0173826,479.77644,556.22336)" />
    <linearGradient
       id="linearGradient5976-8">
      <stop
         style="stop-color:#ffffff;stop-opacity:1"
         offset="0"
         id="stop5978-93" />
      <stop
         style="stop-color:#ff0000;stop-opacity:1"
         offset="1"
         id="stop5980-0" />
    </linearGradient>
    <marker
       inkscape:stockid="Arrow1Mend"
       orient="auto"
       refY="0"
       refX="0"
       id="Arrow1Mend-8"
       style="overflow:visible">
      <path
         inkscape:connector-curvature="0"
         id="path3786-99"
         d="M 0,0 5,-5 -12.5,0 5,5 0,0 z"
         style="fill-rule:evenodd;stroke:#000000;stroke-width:1pt"
         transform="matrix(-0.4,0,0,-0.4,-4,0)" />
    </marker>
    <radialGradient
       inkscape:collect="always"
       xlink:href="#linearGradient5976-1"
       id="radialGradient5982-05"
       cx="113.02963"
       cy="322.38428"
       fx="113.02963"
       fy="322.38428"
       r="13.857142"
       gradientUnits="userSpaceOnUse"
       gradientTransform="matrix(-1.1542513,0.84457023,-0.74442288,-1.0173826,479.77644,556.22336)" />
    <linearGradient
       id="linearGradient5976-1">
      <stop
         style="stop-color:#ffffff;stop-opacity:1"
         offset="0"
         id="stop5978-2" />
      <stop
         style="stop-color:#ff0000;stop-opacity:1"
         offset="1"
         id="stop5980-2" />
    </linearGradient>
    <marker
       inkscape:stockid="Arrow1Mend"
       orient="auto"
       refY="0"
       refX="0"
       id="Arrow1Mend-4"
       style="overflow:visible">
      <path
         inkscape:connector-curvature="0"
         id="path3786-7"
         d="M 0,0 5,-5 -12.5,0 5,5 0,0 z"
         style="fill-rule:evenodd;stroke:#000000;stroke-width:1pt"
         transform="matrix(-0.4,0,0,-0.4,-4,0)" />
    </marker>
    <radialGradient
       r="13.857142"
       fy="322.38428"
       fx="113.02963"
       cy="322.38428"
       cx="113.02963"
       gradientTransform="matrix(-1.1542513,0.84457023,-0.74442288,-1.0173826,479.77644,556.22336)"
       gradientUnits="userSpaceOnUse"
       id="radialGradient6498-5"
       xlink:href="#linearGradient6569-4"
       inkscape:collect="always" />
    <linearGradient
       id="linearGradient6569-4">
      <stop
         id="stop6571-8"
         offset="0"
         style="stop-color:#ffffff;stop-opacity:1" />
      <stop
         id="stop6573-9"
         offset="1"
         style="stop-color:#008000;stop-opacity:1" />
    </linearGradient>
    <radialGradient
       r="13.857142"
       fy="322.38428"
       fx="113.02963"
       cy="322.38428"
       cx="113.02963"
       gradientTransform="matrix(-1.6004824,1.1710793,-1.0322152,-1.4107006,703.62667,374.63898)"
       gradientUnits="userSpaceOnUse"
       id="radialGradient6593"
       xlink:href="#linearGradient3123"
       inkscape:collect="always" />
    <marker
       inkscape:stockid="Arrow1Mend"
       orient="auto"
       refY="0"
       refX="0"
       id="Arrow1Mend-1"
       style="overflow:visible">
      <path
         inkscape:connector-curvature="0"
         id="path3786-8"
         d="M 0,0 5,-5 -12.5,0 5,5 0,0 z"
         style="fill-rule:evenodd;stroke:#000000;stroke-width:1pt"
         transform="matrix(-0.4,0,0,-0.4,-4,0)" />
    </marker>
    <radialGradient
       r="13.857142"
       fy="322.38428"
       fx="113.02963"
       cy="322.38428"
       cx="113.02963"
       gradientTransform="matrix(-1.1542513,0.84457023,-0.74442288,-1.0173826,479.77644,556.22336)"
       gradientUnits="userSpaceOnUse"
       id="radialGradient6498-40"
       xlink:href="#linearGradient6569-0"
       inkscape:collect="always" />
    <linearGradient
       id="linearGradient6569-0">
      <stop
         id="stop6571-0"
         offset="0"
         style="stop-color:#ffffff;stop-opacity:1" />
      <stop
         id="stop6573-2"
         offset="1"
         style="stop-color:#008000;stop-opacity:1" />
    </linearGradient>
    <marker
       inkscape:stockid="Arrow1Mend"
       orient="auto"
       refY="0"
       refX="0"
       id="Arrow1Mend-54"
       style="overflow:visible">
      <path
         inkscape:connector-curvature="0"
         id="path3786-85"
         d="M 0,0 5,-5 -12.5,0 5,5 0,0 z"
         style="fill-rule:evenodd;stroke:#000000;stroke-width:1pt"
         transform="matrix(-0.4,0,0,-0.4,-4,0)" />
    </marker>
    <radialGradient
       r="13.857142"
       fy="322.38428"
       fx="113.02963"
       cy="322.38428"
       cx="113.02963"
       gradientTransform="matrix(-1.1542513,0.84457023,-0.74442288,-1.0173826,479.77644,556.22336)"
       gradientUnits="userSpaceOnUse"
       id="radialGradient6593-4-9"
       xlink:href="#linearGradient6641-1"
       inkscape:collect="always" />
    <linearGradient
       id="linearGradient6641-1">
      <stop
         style="stop-color:#ffffff;stop-opacity:1"
         offset="0"
         id="stop6643-9" />
      <stop
         style="stop-color:#0000ff;stop-opacity:1"
         offset="1"
         id="stop6645-4" />
    </linearGradient>
    <linearGradient
       id="linearGradient6569-7">
      <stop
         id="stop6571-3"
         offset="0"
         style="stop-color:#ffffff;stop-opacity:1" />
      <stop
         id="stop6573-5"
         offset="1"
         style="stop-color:#008000;stop-opacity:1" />
    </linearGradient>
    <radialGradient
       inkscape:collect="always"
       xlink:href="#linearGradient5976-24"
       id="radialGradient5982-3"
       cx="113.02963"
       cy="322.38428"
       fx="113.02963"
       fy="322.38428"
       r="13.857142"
       gradientUnits="userSpaceOnUse"
       gradientTransform="matrix(-1.1542513,0.84457023,-0.74442288,-1.0173826,479.77644,556.22336)" />
    <linearGradient
       id="linearGradient5976-24">
      <stop
         style="stop-color:#ffffff;stop-opacity:1"
         offset="0"
         id="stop5978-6" />
      <stop
         style="stop-color:#ff0000;stop-opacity:1"
         offset="1"
         id="stop5980-95" />
    </linearGradient>
    <marker
       inkscape:stockid="Arrow1Mend"
       orient="auto"
       refY="0"
       refX="0"
       id="Arrow1Mend-7"
       style="overflow:visible">
      <path
         inkscape:connector-curvature="0"
         id="path3786-6"
         d="M 0,0 5,-5 -12.5,0 5,5 0,0 z"
         style="fill-rule:evenodd;stroke:#000000;stroke-width:1pt"
         transform="matrix(-0.4,0,0,-0.4,-4,0)" />
    </marker>
    <marker
       inkscape:stockid="Arrow2Lend"
       orient="auto"
       refY="0"
       refX="0"
       id="Arrow2Lend-3"
       style="overflow:visible">
      <path
         inkscape:connector-curvature="0"
         id="path3798-3"
         style="fill-rule:evenodd;stroke-width:0.625;stroke-linejoin:round"
         d="M 8.7185878,4.0337352 -2.2072895,0.01601326 8.7185884,-4.0017078 c -1.7454984,2.3720609 -1.7354408,5.6174519 -6e-7,8.035443 z"
         transform="matrix(-1.1,0,0,-1.1,-1.1,0)" />
    </marker>
    <linearGradient
       id="linearGradient6690-8">
      <stop
         id="stop6692-2"
         offset="0"
         style="stop-color:#ffffff;stop-opacity:1" />
      <stop
         id="stop6694-2"
         offset="1"
         style="stop-color:#00ffff;stop-opacity:1" />
    </linearGradient>
    <radialGradient
       r="13.857142"
       fy="322.38428"
       fx="113.02963"
       cy="322.38428"
       cx="113.02963"
       gradientTransform="matrix(-1.1542513,0.84457023,-0.74442288,-1.0173826,479.77644,556.22336)"
       gradientUnits="userSpaceOnUse"
       id="radialGradient6593-4-5"
       xlink:href="#linearGradient6641-4"
       inkscape:collect="always" />
    <linearGradient
       id="linearGradient6641-4">
      <stop
         style="stop-color:#ffffff;stop-opacity:1"
         offset="0"
         id="stop6643-3" />
      <stop
         style="stop-color:#0000ff;stop-opacity:1"
         offset="1"
         id="stop6645-48" />
    </linearGradient>
    <radialGradient
       r="13.857142"
       fy="322.38428"
       fx="113.02963"
       cy="322.38428"
       cx="113.02963"
       gradientTransform="matrix(-1.1542513,0.84457023,-0.74442288,-1.0173826,479.77644,556.22336)"
       gradientUnits="userSpaceOnUse"
       id="radialGradient6593-40"
       xlink:href="#linearGradient6569-4-7"
       inkscape:collect="always" />
    <linearGradient
       id="linearGradient6569-4-7">
      <stop
         id="stop6571-8-7"
         offset="0"
         style="stop-color:#ffffff;stop-opacity:1" />
      <stop
         id="stop6573-9-7"
         offset="1"
         style="stop-color:#008000;stop-opacity:1" />
    </linearGradient>
    <radialGradient
       r="13.857142"
       fy="322.38428"
       fx="113.02963"
       cy="322.38428"
       cx="113.02963"
       gradientTransform="matrix(-1.6004824,1.1710793,-1.0322152,-1.4107006,758.51832,594.65301)"
       gradientUnits="userSpaceOnUse"
       id="radialGradient6874"
       xlink:href="#linearGradient5948"
       inkscape:collect="always" />
    <marker
       inkscape:stockid="Arrow1Mend"
       orient="auto"
       refY="0"
       refX="0"
       id="Arrow1Mend-19"
       style="overflow:visible">
      <path
         inkscape:connector-curvature="0"
         id="path3786-3"
         d="M 0,0 5,-5 -12.5,0 5,5 0,0 z"
         style="fill-rule:evenodd;stroke:#000000;stroke-width:1pt"
         transform="matrix(-0.4,0,0,-0.4,-4,0)" />
    </marker>
    <filter
       id="filter6959"
       style="color-interpolation-filters:sRGB;"
       inkscape:label="Drop Shadow">
      <feFlood
         id="feFlood6961"
         flood-opacity="0.5"
         flood-color="rgb(0,0,0)"
         result="flood" />
      <feComposite
         id="feComposite6963"
         in2="SourceGraphic"
         in="flood"
         operator="in"
         result="composite1" />
      <feGaussianBlur
         id="feGaussianBlur6965"
         in="composite"
         stdDeviation="2"
         result="blur" />
      <feOffset
         id="feOffset6967"
         dx="4"
         dy="4"
         result="offset" />
      <feComposite
         id="feComposite6969"
         in2="offset"
         in="SourceGraphic"
         operator="over"
         result="composite2" />
    </filter>
    <marker
       inkscape:stockid="Arrow1Mend"
       orient="auto"
       refY="0"
       refX="0"
       id="Arrow1Mend-19-5"
       style="overflow:visible">
      <path
         inkscape:connector-curvature="0"
         id="path3786-3-2"
         d="M 0,0 5,-5 -12.5,0 5,5 0,0 z"
         style="fill-rule:evenodd;stroke:#000000;stroke-width:1pt"
         transform="matrix(-0.4,0,0,-0.4,-4,0)" />
    </marker>
    <marker
       inkscape:stockid="Arrow1Mend"
       orient="auto"
       refY="0"
       refX="0"
       id="Arrow1Mend-19-7"
       style="overflow:visible">
      <path
         inkscape:connector-curvature="0"
         id="path3786-3-3"
         d="M 0,0 5,-5 -12.5,0 5,5 0,0 z"
         style="fill-rule:evenodd;stroke:#000000;stroke-width:1pt"
         transform="matrix(-0.4,0,0,-0.4,-4,0)" />
    </marker>
    <radialGradient
       r="13.857142"
       fy="322.38428"
       fx="113.02963"
       cy="322.38428"
       cx="113.02963"
       gradientTransform="matrix(-1.1542513,0.84457023,-0.74442288,-1.0173826,479.77644,556.22336)"
       gradientUnits="userSpaceOnUse"
       id="radialGradient6874-6"
       xlink:href="#linearGradient5948-6"
       inkscape:collect="always" />
    <linearGradient
       id="linearGradient5948-6">
      <stop
         style="stop-color:#ffffff;stop-opacity:1"
         offset="0"
         id="stop5950-7" />
      <stop
         style="stop-color:#ffff00;stop-opacity:1"
         offset="1"
         id="stop5952-2" />
    </linearGradient>
    <radialGradient
       r="13.857142"
       fy="322.38428"
       fx="113.02963"
       cy="322.38428"
       cx="113.02963"
       gradientTransform="matrix(-1.6004824,1.1710793,-1.0322152,-1.4107006,756.48387,372.72929)"
       gradientUnits="userSpaceOnUse"
       id="radialGradient5975"
       xlink:href="#linearGradient5948-6"
       inkscape:collect="always" />
    <marker
       inkscape:stockid="Arrow1Mend"
       orient="auto"
       refY="0"
       refX="0"
       id="Arrow1Mend-87"
       style="overflow:visible">
      <path
         inkscape:connector-curvature="0"
         id="path3786-2"
         d="M 0,0 5,-5 -12.5,0 5,5 0,0 z"
         style="fill-rule:evenodd;stroke:#000000;stroke-width:1pt"
         transform="matrix(-0.4,0,0,-0.4,-4,0)" />
    </marker>
    <marker
       inkscape:stockid="Arrow1Mend"
       orient="auto"
       refY="0"
       refX="0"
       id="Arrow1Mend-19-78"
       style="overflow:visible">
      <path
         inkscape:connector-curvature="0"
         id="path3786-3-0"
         d="M 0,0 5,-5 -12.5,0 5,5 0,0 z"
         style="fill-rule:evenodd;stroke:#000000;stroke-width:1pt"
         transform="matrix(-0.4,0,0,-0.4,-4,0)" />
    </marker>
    <marker
       inkscape:stockid="Arrow1Mend"
       orient="auto"
       refY="0"
       refX="0"
       id="Arrow1Mend-27"
       style="overflow:visible">
      <path
         inkscape:connector-curvature="0"
         id="path3786-96"
         d="M 0,0 5,-5 -12.5,0 5,5 0,0 z"
         style="fill-rule:evenodd;stroke:#000000;stroke-width:1pt"
         transform="matrix(-0.4,0,0,-0.4,-4,0)" />
    </marker>
    <marker
       inkscape:stockid="Arrow1Mend"
       orient="auto"
       refY="0"
       refX="0"
       id="Arrow1Mend-51"
       style="overflow:visible">
      <path
         inkscape:connector-curvature="0"
         id="path3786-58"
         d="M 0,0 5,-5 -12.5,0 5,5 0,0 z"
         style="fill-rule:evenodd;stroke:#000000;stroke-width:1pt"
         transform="matrix(-0.4,0,0,-0.4,-4,0)" />
    </marker>
    <marker
       inkscape:stockid="Arrow1Mend"
       orient="auto"
       refY="0"
       refX="0"
       id="Arrow1Mend-3"
       style="overflow:visible">
      <path
         inkscape:connector-curvature="0"
         id="path3786-73"
         d="M 0,0 5,-5 -12.5,0 5,5 0,0 z"
         style="fill-rule:evenodd;stroke:#000000;stroke-width:1pt"
         transform="matrix(-0.4,0,0,-0.4,-4,0)" />
    </marker>
    <linearGradient
       id="linearGradient6641-6">
      <stop
         style="stop-color:#ffffff;stop-opacity:1"
         offset="0"
         id="stop6643-1" />
      <stop
         style="stop-color:#ffff00;stop-opacity:1"
         offset="1"
         id="stop6645-6" />
    </linearGradient>
    <marker
       inkscape:stockid="Arrow1Mend"
       orient="auto"
       refY="0"
       refX="0"
       id="marker3189"
       style="overflow:visible">
      <path
         inkscape:connector-curvature="0"
         id="path3191"
         d="M 0,0 5,-5 -12.5,0 5,5 0,0 z"
         style="fill-rule:evenodd;stroke:#000000;stroke-width:1pt"
         transform="matrix(-0.4,0,0,-0.4,-4,0)" />
    </marker>
    <radialGradient
       r="13.857142"
       fy="322.38428"
       fx="113.02963"
       cy="322.38428"
       cx="113.02963"
       gradientTransform="matrix(-1.6004824,1.1710793,-1.0322152,-1.4107006,651.08437,373.75839)"
       gradientUnits="userSpaceOnUse"
       id="radialGradient6665"
       xlink:href="#linearGradient6690-6"
       inkscape:collect="always" />
    <linearGradient
       id="linearGradient6690-6">
      <stop
         id="stop6692-5"
         offset="0"
         style="stop-color:#ffffff;stop-opacity:1" />
      <stop
         id="stop6694-6"
         offset="1"
         style="stop-color:#ff00ff;stop-opacity:1" />
    </linearGradient>
    <marker
       inkscape:stockid="Arrow1Mend"
       orient="auto"
       refY="0"
       refX="0"
       id="marker3197"
       style="overflow:visible">
      <path
         inkscape:connector-curvature="0"
         id="path3199"
         d="M 0,0 5,-5 -12.5,0 5,5 0,0 z"
         style="fill-rule:evenodd;stroke:#000000;stroke-width:1pt"
         transform="matrix(-0.4,0,0,-0.4,-4,0)" />
    </marker>
    <linearGradient
       id="linearGradient6641-60">
      <stop
         style="stop-color:#ffffff;stop-opacity:1"
         offset="0"
         id="stop6643-5" />
      <stop
         style="stop-color:#00ffff;stop-opacity:1"
         offset="1"
         id="stop6645-5" />
    </linearGradient>
    <marker
       inkscape:stockid="Arrow1Mend"
       orient="auto"
       refY="0"
       refX="0"
       id="marker3205"
       style="overflow:visible">
      <path
         inkscape:connector-curvature="0"
         id="path3207"
         d="M 0,0 5,-5 -12.5,0 5,5 0,0 z"
         style="fill-rule:evenodd;stroke:#000000;stroke-width:1pt"
         transform="matrix(-0.4,0,0,-0.4,-4,0)" />
    </marker>
    <linearGradient
       id="linearGradient6569-4-6">
      <stop
         id="stop6571-8-1"
         offset="0"
         style="stop-color:#ffffff;stop-opacity:1" />
      <stop
         id="stop6573-9-3"
         offset="1"
         style="stop-color:#008000;stop-opacity:1" />
    </linearGradient>
    <marker
       inkscape:stockid="Arrow1Mend"
       orient="auto"
       refY="0"
       refX="0"
       id="marker3213"
       style="overflow:visible">
      <path
         inkscape:connector-curvature="0"
         id="path3215"
         d="M 0,0 5,-5 -12.5,0 5,5 0,0 z"
         style="fill-rule:evenodd;stroke:#000000;stroke-width:1pt"
         transform="matrix(-0.4,0,0,-0.4,-4,0)" />
    </marker>
    <linearGradient
       id="linearGradient6569-5">
      <stop
         id="stop6571-6"
         offset="0"
         style="stop-color:#ffffff;stop-opacity:1" />
      <stop
         id="stop6573-29"
         offset="1"
         style="stop-color:#0000ff;stop-opacity:1" />
    </linearGradient>
    <marker
       inkscape:stockid="Arrow1Mend"
       orient="auto"
       refY="0"
       refX="0"
       id="marker3221"
       style="overflow:visible">
      <path
         inkscape:connector-curvature="0"
         id="path3223"
         d="M 0,0 5,-5 -12.5,0 5,5 0,0 z"
         style="fill-rule:evenodd;stroke:#000000;stroke-width:1pt"
         transform="matrix(-0.4,0,0,-0.4,-4,0)" />
    </marker>
    <linearGradient
       id="linearGradient5976-27">
      <stop
         style="stop-color:#ffffff;stop-opacity:1"
         offset="0"
         id="stop5978-0" />
      <stop
         style="stop-color:#ff0000;stop-opacity:1"
         offset="1"
         id="stop5980-3" />
    </linearGradient>
    <marker
       inkscape:stockid="Arrow2Lend"
       orient="auto"
       refY="0"
       refX="0"
       id="Arrow2Lend-0"
       style="overflow:visible">
      <path
         inkscape:connector-curvature="0"
         id="path3798-2"
         style="fill-rule:evenodd;stroke-width:0.625;stroke-linejoin:round"
         d="M 8.7185878,4.0337352 -2.2072895,0.01601326 8.7185884,-4.0017078 c -1.7454984,2.3720609 -1.7354408,5.6174519 -6e-7,8.035443 z"
         transform="matrix(-1.1,0,0,-1.1,-1.1,0)" />
    </marker>
    <radialGradient
       inkscape:collect="always"
       xlink:href="#linearGradient4381"
       id="radialGradient4393"
       cx="222.12381"
       cy="270.44965"
       fx="222.12381"
       fy="270.44965"
       r="18.529358"
       gradientUnits="userSpaceOnUse"
       gradientTransform="matrix(0.64975046,0.7722924,-1.0064459,0.84675007,349.43915,-92.614176)" />
    <linearGradient
       id="linearGradient4381">
      <stop
         style="stop-color:#ffffff;stop-opacity:1"
         offset="0"
         id="stop4383" />
      <stop
         id="stop4395"
         offset="0.47045556"
         style="stop-color:#ff0000;stop-opacity:0.49803922;" />
      <stop
         style="stop-color:#ff0000;stop-opacity:1"
         offset="1"
         id="stop4385" />
    </linearGradient>
    <radialGradient
       r="18.529358"
       fy="270.44965"
       fx="222.12381"
       cy="270.44965"
       cx="222.12381"
       gradientTransform="matrix(0.64975046,0.7722924,-1.0064459,0.84675007,693.58216,-64.614214)"
       gradientUnits="userSpaceOnUse"
       id="radialGradient4413"
       xlink:href="#linearGradient4381"
       inkscape:collect="always" />
    <linearGradient
       id="linearGradient5006-3">
      <stop
         style="stop-color:#ffffff;stop-opacity:1;"
         offset="0"
         id="stop5008-2" />
      <stop
         id="stop5010-0"
         offset="0.47045565"
         style="stop-color:#ff0000;stop-opacity:1" />
      <stop
         style="stop-color:#ff0000;stop-opacity:1"
         offset="1"
         id="stop5012-6" />
    </linearGradient>
    <radialGradient
       r="18.529358"
       fy="270.44965"
       fx="222.12381"
       cy="270.44965"
       cx="222.12381"
       gradientTransform="matrix(1.9623077,2.4976777,-2.5255467,1.984202,461.44365,-669.77253)"
       gradientUnits="userSpaceOnUse"
       id="radialGradient4938"
       xlink:href="#linearGradient4961"
       inkscape:collect="always" />
    <linearGradient
       id="linearGradient4961">
      <stop
         id="stop4963"
         offset="0"
         style="stop-color:#ffffff;stop-opacity:1;" />
      <stop
         style="stop-color:#0000ff;stop-opacity:1"
         offset="0.47045565"
         id="stop4965" />
      <stop
         id="stop4967"
         offset="1"
         style="stop-color:#0000ff;stop-opacity:1" />
    </linearGradient>
    <radialGradient
       inkscape:collect="always"
       xlink:href="#linearGradient7050"
       id="radialGradient7058"
       cx="548.11761"
       cy="382.37332"
       fx="548.11761"
       fy="382.37332"
       r="27.148062"
       gradientTransform="matrix(-0.39837959,0.45891853,-0.71032911,-0.61662495,1013.7564,363.46907)"
       gradientUnits="userSpaceOnUse" />
    <linearGradient
       inkscape:collect="always"
       id="linearGradient7050">
      <stop
         style="stop-color:#ffffff;stop-opacity:1"
         offset="0"
         id="stop7052" />
      <stop
         style="stop-color:#0000ff;stop-opacity:1"
         offset="1"
         id="stop7054" />
    </linearGradient>
    <radialGradient
       inkscape:collect="always"
       xlink:href="#linearGradient5948-6"
       id="radialGradient1390"
       gradientUnits="userSpaceOnUse"
       gradientTransform="matrix(-1.6004824,1.1710793,-1.0322152,-1.4107006,790.48387,482.72929)"
       cx="113.02963"
       cy="322.38428"
       fx="113.02963"
       fy="322.38428"
       r="13.857142" />
  </defs>
  <sodipodi:namedview
     id="base"
     pagecolor="#ffffff"
     bordercolor="#666666"
     borderopacity="1.0"
     inkscape:pageopacity="0.0"
     inkscape:pageshadow="2"
     inkscape:zoom="1.979899"
     inkscape:cx="188.22323"
     inkscape:cy="925.1227"
     inkscape:document-units="px"
     inkscape:current-layer="layer1"
     showgrid="true"
     inkscape:window-width="1885"
     inkscape:window-height="1025"
     inkscape:window-x="35"
     inkscape:window-y="23"
     inkscape:window-maximized="1"
     showguides="false"
     inkscape:measure-start="0,0"
     inkscape:measure-end="0,0">
    <inkscape:grid
       type="xygrid"
       id="grid1368" />
  </sodipodi:namedview>
  <metadata
     id="metadata7">
    <rdf:RDF>
      <cc:Work
         rdf:about="">
        <dc:format>image/svg+xml</dc:format>
        <dc:type
           rdf:resource="http://purl.org/dc/dcmitype/StillImage" />
        <dc:title />
      </cc:Work>
    </rdf:RDF>
  </metadata>
  <g
     inkscape:label="Layer 1"
     inkscape:groupmode="layer"
     id="layer1">
    <rect
       style="fill:#ffffff;fill-opacity:1;stroke:#000000;stroke-width:2.02599999999999980;stroke-miterlimit:4;stroke-opacity:1;stroke-dasharray:none;stroke-dashoffset:0;filter:url(#filter6959)"
       id="rect4418"
       width="408.28671"
       height="58.015823"
       x="41.998894"
       y="138.71141" />
    <text
       xml:space="preserve"
       style="font-style:normal;font-weight:normal;line-height:0%;font-family:'Bitstream Vera Sans';letter-spacing:0px;word-spacing:0px;fill:#000000;fill-opacity:1;stroke:none"
       x="203"
       y="175.21933"
       id="text6476"><tspan
         sodipodi:role="line"
         id="tspan6478"
         x="203"
         y="175.21933"
         style="font-size:20px;line-height:1.25">filter(        )</tspan></text>
    <path
       style="fill:none;stroke:#000000;stroke-width:1.81479561;stroke-linecap:butt;stroke-linejoin:miter;stroke-miterlimit:4;stroke-dasharray:none;stroke-opacity:1;marker-end:url(#Arrow2Lend)"
       d="M 41.114503,281.65197 H 360"
       id="path3003-6"
       inkscape:connector-curvature="0" />
    <circle
       style="fill:url(#radialGradient6874);fill-opacity:1;stroke:#000000;stroke-width:2.77319574;stroke-miterlimit:4;stroke-dasharray:none;stroke-dashoffset:0;stroke-opacity:1"
       id="path4428-7-3-3"
       cx="249.74878"
       cy="280.28586"
       r="17.827686" />
    <path
       style="fill:none;stroke:#000000;stroke-width:1.93039834;stroke-linecap:butt;stroke-linejoin:miter;stroke-miterlimit:4;stroke-dasharray:5.7911949, 5.7911949;stroke-dashoffset:0;stroke-opacity:1;marker-end:url(#Arrow1Mend)"
       d="m 251.10338,207.68081 -0.72139,48.75736"
       id="path5986-1-9"
       inkscape:connector-curvature="0" />
    <path
       style="fill:none;stroke:#000000;stroke-width:2;stroke-linecap:butt;stroke-linejoin:miter;stroke-miterlimit:4;stroke-dasharray:6, 6;stroke-dashoffset:0;stroke-opacity:1;marker-end:url(#Arrow1Mend-19)"
       d="M 144.57143,59.183624 V 136.32647"
       id="path4837-4"
       inkscape:connector-curvature="0" />
    <path
       style="fill:none;stroke:#000000;stroke-width:2;stroke-linecap:butt;stroke-linejoin:miter;stroke-miterlimit:4;stroke-dasharray:6, 6;stroke-dashoffset:0;stroke-opacity:1;marker-end:url(#Arrow1Mend-19)"
       d="m 196.85714,58.46933 v 77.14286"
       id="path4837-8"
       inkscape:connector-curvature="0" />
    <path
       inkscape:connector-curvature="0"
       id="path1361"
       d="M 42.169934,59.48655 H 355"
       style="fill:none;stroke:#000000;stroke-width:1.78033388;stroke-linecap:butt;stroke-linejoin:miter;stroke-miterlimit:4;stroke-dasharray:none;stroke-opacity:1;marker-end:url(#Arrow2Lend)" />
    <circle
       style="fill:url(#radialGradient6593);fill-opacity:1;stroke:#000000;stroke-width:2.77319574;stroke-miterlimit:4;stroke-dasharray:none;stroke-dashoffset:0;stroke-opacity:1"
       id="path4428-7-3"
       cx="194.85715"
       cy="60.271832"
       r="17.827686" />
    <circle
       style="fill:url(#radialGradient6665);fill-opacity:1;stroke:#000000;stroke-width:2.77319574;stroke-miterlimit:4;stroke-dasharray:none;stroke-dashoffset:0;stroke-opacity:1"
       id="path4428-7-5-9"
       cx="142.31482"
       cy="59.391239"
       r="17.827686" />
    <path
       inkscape:connector-curvature="0"
       id="path1375"
       d="m 250.85714,58.46933 v 77.14286"
       style="fill:none;stroke:#000000;stroke-width:2;stroke-linecap:butt;stroke-linejoin:miter;stroke-miterlimit:4;stroke-dasharray:6, 6;stroke-dashoffset:0;stroke-opacity:1;marker-end:url(#Arrow1Mend-19)" />
    <circle
       style="fill:url(#radialGradient5975);fill-opacity:1;stroke:#000000;stroke-width:2.77319574;stroke-miterlimit:4;stroke-dasharray:none;stroke-dashoffset:0;stroke-opacity:1"
       id="path4428-7-3-3-9"
       cx="247.71436"
       cy="58.362141"
       r="17.827686" />
    <circle
       r="17.827686"
       cy="168.36214"
       cx="281.71436"
       id="circle1388"
       style="fill:url(#radialGradient1390);fill-opacity:1;stroke:#000000;stroke-width:2.77319574;stroke-miterlimit:4;stroke-dasharray:none;stroke-dashoffset:0;stroke-opacity:1" />
    <path
       inkscape:connector-curvature="0"
       id="path1398"
       d="M 62,132.36218 V 71.219338"
       style="fill:none;stroke:#000000;stroke-width:1.78055334;stroke-linecap:butt;stroke-linejoin:miter;stroke-miterlimit:4;stroke-dasharray:5.34166014, 5.34166014;stroke-dashoffset:0;stroke-opacity:1;marker-end:url(#Arrow1Mend-19)" />
    <text
       id="text1404"
       y="250.50505"
       x="66.14286"
       style="font-style:normal;font-weight:normal;line-height:0%;font-family:'Bitstream Vera Sans';letter-spacing:0px;word-spacing:0px;fill:#0000ff;fill-opacity:1;stroke:none"
       xml:space="preserve"><tspan
         style="font-size:14.66666698px;line-height:1.25;fill:#0000ff"
         y="250.50505"
         x="66.14286"
         id="tspan1402"
         sodipodi:role="line">subscribe</tspan></text>
    <path
       style="fill:none;stroke:#000000;stroke-width:1.78055334;stroke-linecap:butt;stroke-linejoin:miter;stroke-miterlimit:4;stroke-dasharray:5.34166014, 5.34166014;stroke-dashoffset:0;stroke-opacity:1;marker-end:url(#Arrow1Mend-19)"
       d="M 62,272.36218 V 211.21934"
       id="path3363"
       inkscape:connector-curvature="0" />
    <text
       xml:space="preserve"
       style="font-style:normal;font-weight:normal;line-height:0%;font-family:'Bitstream Vera Sans';letter-spacing:0px;word-spacing:0px;fill:#0000ff;fill-opacity:1;stroke:none"
       x="66.14286"
       y="114.50505"
       id="text7517"><tspan
         sodipodi:role="line"
         id="tspan7515"
         x="66.14286"
         y="114.50505"
         style="font-size:14.66666698px;line-height:1.25;fill:#0000ff">subscribe</tspan></text>
    <text
       xml:space="preserve"
       style="font-style:normal;font-weight:normal;line-height:0%;font-family:'Bitstream Vera Sans';letter-spacing:0px;word-spacing:0px;fill:#0000ff;fill-opacity:1;stroke:none"
       x="328.14285"
       y="250.50505"
       id="text1365"><tspan
         sodipodi:role="line"
         id="tspan1363"
         x="328.14285"
         y="250.50505"
         style="font-size:14.66666698px;line-height:1.25;fill:#0000ff">dispose</tspan></text>
    <path
       inkscape:connector-curvature="0"
       id="path1367"
       d="M 324,272.36218 V 211.21934"
       style="fill:none;stroke:#000000;stroke-width:1.78055334;stroke-linecap:butt;stroke-linejoin:miter;stroke-miterlimit:4;stroke-dasharray:5.34166014, 5.34166014;stroke-dashoffset:0;stroke-opacity:1;marker-end:url(#Arrow1Mend-19)" />
    <text
       id="text1371"
       y="110.50505"
       x="328.14285"
       style="font-style:normal;font-weight:normal;line-height:0%;font-family:'Bitstream Vera Sans';letter-spacing:0px;word-spacing:0px;fill:#0000ff;fill-opacity:1;stroke:none"
       xml:space="preserve"><tspan
         style="font-size:14.66666698px;line-height:1.25;fill:#0000ff"
         y="110.50505"
         x="328.14285"
         id="tspan1369"
         sodipodi:role="line">dispose</tspan></text>
    <path
       style="fill:none;stroke:#000000;stroke-width:1.78055334;stroke-linecap:butt;stroke-linejoin:miter;stroke-miterlimit:4;stroke-dasharray:5.34166014, 5.34166014;stroke-dashoffset:0;stroke-opacity:1;marker-end:url(#Arrow1Mend-19)"
       d="M 324,132.36218 V 71.21934"
       id="path1373"
       inkscape:connector-curvature="0" />
  </g>
</svg>
